{
  "rows" : 16,
  "cols" : 16,
  "bg"   : [0, 0, 0],
  "bots"   : [
    {
      "x"  : 1,
      "y" : 1,
      "type" : 1
    },
    {
      "x"  : 15,
      "y" : 15,
      "type" : 1
    },
    {
      "x"  : 15,
      "y" : 1,
      "type" : 1
    },
    {
      "x"  : 1,
      "y" : 15,
      "type" : 1
    }
  ],
  "grid" :
[
  [
    [
      false,
      true,
      true,
      false
    ],
    [
      true,
      true,
      false,
      true
    ],
    [
      false,
      true,
      true,
      false
    ],
    [
      false,
      true,
      false,
      true
    ],
    [
      false,
      true,
      false,
      false
    ],
    [
      true,
      true,
      false,
      false
    ],
    [
      true,
      true,
      true,
      false
    ],
    [
      true,
      false,
      true,
      false
    ],
    [
      false,
      true,
      true,
      false
    ],
    [
      false,
      true,
      false,
      true
    ],
    [
      false,
      true,
      false,
      true
    ],
    [
      false,
      true,
      false,
      true
    ],
    [
      false,
      true,
      false,
      true
    ],
    [
      true,
      true,
      false,
      false
    ],
    [
      false,
      true,
      true,
      true
    ],
    [
      true,
      true,
      false,
      false
    ]
  ],
  [
    [
      false,
      false,
      true,
      true
    ],
    [
      false,
      true,
      false,
      false
    ],
    [
      false,
      false,
      false,
      true
    ],
    [
      true,
      true,
      false,
      false
    ],
    [
      true,
      false,
      true,
      false
    ],
    [
      true,
      false,
      true,
      false
    ],
    [
      true,
      false,
      true,
      false
    ],
    [
      true,
      false,
      true,
      false
    ],
    [
      false,
      false,
      true,
      false
    ],
    [
      false,
      true,
      false,
      true
    ],
    [
      false,
      true,
      false,
      true
    ],
    [
      false,
      true,
      false,
      true
    ],
    [
      true,
      true,
      false,
      true
    ],
    [
      false,
      false,
      true,
      true
    ],
    [
      true,
      true,
      false,
      false
    ],
    [
      true,
      false,
      true,
      false
    ]
  ],
  [
    [
      true,
      true,
      true,
      false
    ],
    [
      true,
      false,
      true,
      true
    ],
    [
      false,
      true,
      true,
      false
    ],
    [
      true,
      false,
      false,
      true
    ],
    [
      true,
      false,
      true,
      false
    ],
    [
      true,
      false,
      true,
      false
    ],
    [
      true,
      false,
      true,
      false
    ],
    [
      false,
      false,
      true,
      true
    ],
    [
      true,
      false,
      false,
      false
    ],
    [
      false,
      true,
      true,
      false
    ],
    [
      false,
      true,
      false,
      true
    ],
    [
      false,
      true,
      false,
      true
    ],
    [
      true,
      true,
      false,
      false
    ],
    [
      true,
      true,
      true,
      false
    ],
    [
      true,
      false,
      true,
      false
    ],
    [
      true,
      false,
      true,
      false
    ]
  ],
  [
    [
      false,
      false,
      true,
      true
    ],
    [
      true,
      true,
      false,
      false
    ],
    [
      true,
      false,
      true,
      false
    ],
    [
      false,
      true,
      true,
      true
    ],
    [
      true,
      false,
      false,
      true
    ],
    [
      true,
      false,
      true,
      false
    ],
    [
      false,
      false,
      true,
      false
    ],
    [
      false,
      true,
      false,
      true
    ],
    [
      true,
      false,
      false,
      false
    ],
    [
      true,
      false,
      true,
      false
    ],
    [
      false,
      true,
      true,
      false
    ],
    [
      false,
      true,
      false,
      true
    ],
    [
      true,
      false,
      false,
      false
    ],
    [
      true,
      false,
      true,
      false
    ],
    [
      false,
      false,
      true,
      false
    ],
    [
      true,
      false,
      false,
      true
    ]
  ],
  [
    [
      false,
      true,
      true,
      false
    ],
    [
      true,
      false,
      false,
      false
    ],
    [
      false,
      false,
      true,
      true
    ],
    [
      false,
      true,
      false,
      true
    ],
    [
      true,
      true,
      false,
      false
    ],
    [
      true,
      false,
      true,
      false
    ],
    [
      true,
      false,
      true,
      false
    ],
    [
      false,
      true,
      true,
      false
    ],
    [
      true,
      false,
      false,
      true
    ],
    [
      true,
      false,
      true,
      false
    ],
    [
      true,
      false,
      true,
      false
    ],
    [
      true,
      true,
      true,
      false
    ],
    [
      true,
      false,
      true,
      false
    ],
    [
      true,
      false,
      true,
      false
    ],
    [
      true,
      false,
      true,
      false
    ],
    [
      true,
      true,
      true,
      false
    ]
  ],
  [
    [
      true,
      false,
      true,
      false
    ],
    [
      true,
      false,
      true,
      false
    ],
    [
      false,
      true,
      true,
      true
    ],
    [
      false,
      true,
      false,
      true
    ],
    [
      true,
      false,
      false,
      false
    ],
    [
      false,
      false,
      true,
      true
    ],
    [
      true,
      false,
      false,
      false
    ],
    [
      false,
      false,
      true,
      false
    ],
    [
      false,
      true,
      false,
      true
    ],
    [
      true,
      false,
      false,
      true
    ],
    [
      true,
      false,
      true,
      true
    ],
    [
      true,
      false,
      true,
      false
    ],
    [
      true,
      false,
      true,
      false
    ],
    [
      false,
      false,
      true,
      true
    ],
    [
      false,
      false,
      false,
      true
    ],
    [
      true,
      false,
      false,
      false
    ]
  ],
  [
    [
      true,
      false,
      true,
      false
    ],
    [
      false,
      false,
      true,
      true
    ],
    [
      false,
      true,
      false,
      true
    ],
    [
      true,
      true,
      false,
      false
    ],
    [
      false,
      false,
      true,
      true
    ],
    [
      true,
      true,
      false,
      false
    ],
    [
      true,
      false,
      true,
      false
    ],
    [
      false,
      false,
      true,
      false
    ],
    [
      false,
      true,
      false,
      false
    ],
    [
      false,
      true,
      false,
      false
    ],
    [
      false,
      true,
      false,
      false
    ],
    [
      true,
      false,
      false,
      true
    ],
    [
      false,
      false,
      true,
      true
    ],
    [
      true,
      true,
      false,
      false
    ],
    [
      false,
      true,
      true,
      false
    ],
    [
      true,
      false,
      false,
      false
    ]
  ],
  [
    [
      true,
      false,
      true,
      false
    ],
    [
      false,
      true,
      true,
      false
    ],
    [
      false,
      true,
      false,
      true
    ],
    [
      false,
      false,
      false,
      true
    ],
    [
      false,
      true,
      false,
      false
    ],
    [
      true,
      false,
      false,
      false
    ],
    [
      true,
      false,
      true,
      true
    ],
    [
      true,
      false,
      true,
      false
    ],
    [
      true,
      false,
      true,
      false
    ],
    [
      true,
      false,
      true,
      false
    ],
    [
      true,
      false,
      true,
      false
    ],
    [
      false,
      true,
      true,
      false
    ],
    [
      false,
      true,
      false,
      true
    ],
    [
      true,
      false,
      false,
      true
    ],
    [
      true,
      false,
      true,
      false
    ],
    [
      true,
      false,
      true,
      false
    ]
  ],
  [
    [
      true,
      false,
      true,
      false
    ],
    [
      false,
      false,
      true,
      true
    ],
    [
      false,
      true,
      false,
      true
    ],
    [
      false,
      true,
      false,
      false
    ],
    [
      false,
      false,
      false,
      true
    ],
    [
      true,
      false,
      false,
      false
    ],
    [
      true,
      true,
      true,
      false
    ],
    [
      true,
      false,
      true,
      false
    ],
    [
      true,
      false,
      true,
      false
    ],
    [
      true,
      false,
      true,
      false
    ],
    [
      true,
      false,
      true,
      false
    ],
    [
      false,
      false,
      true,
      true
    ],
    [
      false,
      true,
      false,
      true
    ],
    [
      true,
      true,
      false,
      false
    ],
    [
      true,
      false,
      true,
      false
    ],
    [
      true,
      false,
      true,
      false
    ]
  ],
  [
    [
      true,
      false,
      true,
      false
    ],
    [
      false,
      true,
      true,
      false
    ],
    [
      false,
      true,
      false,
      true
    ],
    [
      true,
      false,
      false,
      true
    ],
    [
      false,
      true,
      true,
      false
    ],
    [
      true,
      false,
      false,
      true
    ],
    [
      true,
      false,
      true,
      false
    ],
    [
      false,
      false,
      true,
      false
    ],
    [
      false,
      false,
      false,
      true
    ],
    [
      false,
      false,
      false,
      true
    ],
    [
      false,
      false,
      false,
      true
    ],
    [
      true,
      true,
      false,
      false
    ],
    [
      false,
      true,
      true,
      false
    ],
    [
      true,
      false,
      false,
      true
    ],
    [
      false,
      false,
      true,
      true
    ],
    [
      true,
      false,
      false,
      false
    ]
  ],
  [
    [
      true,
      false,
      true,
      false
    ],
    [
      true,
      false,
      true,
      false
    ],
    [
      false,
      true,
      true,
      true
    ],
    [
      false,
      true,
      false,
      true
    ],
    [
      true,
      false,
      false,
      false
    ],
    [
      false,
      true,
      true,
      false
    ],
    [
      true,
      false,
      false,
      false
    ],
    [
      false,
      false,
      true,
      false
    ],
    [
      false,
      true,
      false,
      true
    ],
    [
      true,
      true,
      false,
      false
    ],
    [
      true,
      true,
      true,
      false
    ],
    [
      true,
      false,
      true,
      false
    ],
    [
      true,
      false,
      true,
      false
    ],
    [
      false,
      true,
      true,
      false
    ],
    [
      false,
      true,
      false,
      false
    ],
    [
      true,
      false,
      false,
      false
    ]
  ],
  [
    [
      false,
      false,
      true,
      true
    ],
    [
      true,
      false,
      false,
      false
    ],
    [
      false,
      true,
      true,
      false
    ],
    [
      false,
      true,
      false,
      true
    ],
    [
      true,
      false,
      false,
      true
    ],
    [
      true,
      false,
      true,
      false
    ],
    [
      true,
      false,
      true,
      false
    ],
    [
      false,
      false,
      true,
      true
    ],
    [
      true,
      true,
      false,
      false
    ],
    [
      true,
      false,
      true,
      false
    ],
    [
      true,
      false,
      true,
      false
    ],
    [
      true,
      false,
      true,
      true
    ],
    [
      true,
      false,
      true,
      false
    ],
    [
      true,
      false,
      true,
      false
    ],
    [
      true,
      false,
      true,
      false
    ],
    [
      true,
      false,
      true,
      true
    ]
  ],
  [
    [
      false,
      true,
      true,
      false
    ],
    [
      true,
      false,
      false,
      true
    ],
    [
      true,
      false,
      true,
      false
    ],
    [
      false,
      true,
      true,
      true
    ],
    [
      true,
      true,
      false,
      false
    ],
    [
      true,
      false,
      true,
      false
    ],
    [
      false,
      false,
      true,
      false
    ],
    [
      false,
      true,
      false,
      true
    ],
    [
      true,
      false,
      false,
      false
    ],
    [
      true,
      false,
      true,
      false
    ],
    [
      false,
      false,
      true,
      true
    ],
    [
      false,
      true,
      false,
      true
    ],
    [
      true,
      false,
      false,
      false
    ],
    [
      true,
      false,
      true,
      false
    ],
    [
      false,
      false,
      true,
      false
    ],
    [
      true,
      true,
      false,
      false
    ]
  ],
  [
    [
      true,
      false,
      true,
      true
    ],
    [
      true,
      true,
      true,
      false
    ],
    [
      false,
      false,
      true,
      true
    ],
    [
      true,
      true,
      false,
      false
    ],
    [
      true,
      false,
      true,
      false
    ],
    [
      true,
      false,
      true,
      false
    ],
    [
      true,
      false,
      true,
      false
    ],
    [
      false,
      true,
      true,
      false
    ],
    [
      true,
      false,
      false,
      false
    ],
    [
      false,
      false,
      true,
      true
    ],
    [
      false,
      true,
      false,
      true
    ],
    [
      false,
      true,
      false,
      true
    ],
    [
      true,
      false,
      false,
      true
    ],
    [
      true,
      false,
      true,
      true
    ],
    [
      true,
      false,
      true,
      false
    ],
    [
      true,
      false,
      true,
      false
    ]
  ],
  [
    [
      false,
      true,
      true,
      false
    ],
    [
      false,
      false,
      false,
      true
    ],
    [
      false,
      true,
      false,
      false
    ],
    [
      true,
      false,
      false,
      true
    ],
    [
      true,
      false,
      true,
      false
    ],
    [
      true,
      false,
      true,
      false
    ],
    [
      true,
      false,
      true,
      false
    ],
    [
      true,
      false,
      true,
      false
    ],
    [
      false,
      false,
      true,
      false
    ],
    [
      false,
      true,
      false,
      true
    ],
    [
      false,
      true,
      false,
      true
    ],
    [
      false,
      true,
      false,
      true
    ],
    [
      true,
      true,
      false,
      true
    ],
    [
      false,
      true,
      true,
      false
    ],
    [
      true,
      false,
      false,
      true
    ],
    [
      true,
      false,
      true,
      false
    ]
  ],
  [
    [
      false,
      false,
      true,
      true
    ],
    [
      true,
      true,
      false,
      true
    ],
    [
      false,
      false,
      true,
      true
    ],
    [
      false,
      true,
      false,
      true
    ],
    [
      false,
      false,
      false,
      true
    ],
    [
      true,
      false,
      false,
      true
    ],
    [
      true,
      false,
      true,
      true
    ],
    [
      true,
      false,
      true,
      false
    ],
    [
      false,
      false,
      true,
      true
    ],
    [
      false,
      true,
      false,
      true
    ],
    [
      false,
      true,
      false,
      true
    ],
    [
      false,
      true,
      false,
      true
    ],
    [
      false,
      true,
      false,
      true
    ],
    [
      true,
      false,
      false,
      true
    ],
    [
      false,
      true,
      true,
      true
    ],
    [
      true,
      false,
      false,
      true
    ]
  ]
]
}
